﻿{
  "Users": [
    {
      "name": "Ronan",
      "refreshToken": "b5d0d41b90943a968a0f055036fe281a5c3ad42e"

    },
    {
      "name": "Wendy",
      "refreshToken": "3cebe8b8ad4b8011ddd2320e6afb32ddc262e641"
    }
  ]
}